kji: 10
mkm: 0
lol: 0
tht: 10
feg: 103
lol: 97
ll: 0
mmm: 0
hjk: 0
m: 10
vf: 0
fef: 103
fef: 91
kij: 0
mlk: 0
plk: 0
juh: 0
nj: 0
DAV: 102
hol: 247
fef: 0
frd: 0
LOL: 313
efe: 0
wd: 0
dew: 79
dwa: 0
ssa: 0
fg: 0
eee: 107
mjj: 0
ree: 20
fef: 10
wfe: 10
fef: 0
DAV: 81
nhi: 0
DAV: 160
fes: 0
drh: 10
DAV: 89
fef: 325
Dav: 344
DAV: 328
DAV: 347
dac: 0
ewd: 0
fff: 10
wef: 0
daw: 0
DAV: 157
